<?xml version="1.0" encoding="UTF-8" standalone="no"?>
<!DOCTYPE svg PUBLIC "-//W3C//DTD SVG 1.1//EN"
 "http://www.w3.org/Graphics/SVG/1.1/DTD/svg11.dtd">
<!-- Generated by graphviz version 2.47.3 (20210619.1520)
 -->
<!-- Title: ./example/basic/ci.star Pages: 1 -->
<svg width="468pt" height="182pt"
 viewBox="0.00 0.00 468.00 182.00" xmlns="http://www.w3.org/2000/svg" xmlns:xlink="http://www.w3.org/1999/xlink">
<g id="graph0" class="graph" transform="scale(1 1) rotate(0) translate(4 178)">
<title>./example/basic/ci.star</title>
<polygon fill="white" stroke="transparent" points="-4,4 -4,-178 464,-178 464,4 -4,4"/>
<g id="clust1" class="cluster">
<title>cluster0</title>
<polygon fill="#ffff99" stroke="#b15928" points="8,-8 8,-83 452,-83 452,-8 8,-8"/>
<text text-anchor="middle" x="230" y="-67.8" font-family="Times,serif" font-size="14.00">:job1</text>
</g>
<g id="clust2" class="cluster">
<title>cluster1</title>
<polygon fill="#ffff99" stroke="#b15928" points="43,-91 43,-166 417,-166 417,-91 43,-91"/>
<text text-anchor="middle" x="230" y="-150.8" font-family="Times,serif" font-size="14.00">:job2</text>
</g>
<!-- 0 -->
<g id="node1" class="node">
<title>0</title>
<ellipse fill="#a6cee3" stroke="black" cx="230" cy="-34" rx="213.66" ry="18"/>
<text text-anchor="middle" x="230" y="-30.3" font-family="Times,serif" font-size="14.00">&quot;run_container&quot;(args = [&quot;&#45;v&quot;, &quot;&#45;x&quot;], image = &quot;img1:v1&quot;)</text>
</g>
<!-- 1 -->
<g id="node2" class="node">
<title>1</title>
<ellipse fill="#a6cee3" stroke="black" cx="230" cy="-117" rx="178.97" ry="18"/>
<text text-anchor="middle" x="230" y="-113.3" font-family="Times,serif" font-size="14.00">&quot;run_container&quot;(args = [], image = &quot;img2:v3&quot;)</text>
</g>
<!-- 1&#45;&gt;0 -->
<g id="edge1" class="edge">
<title>1&#45;&gt;0</title>
<path fill="none" stroke="#b15928" d="M230,-98.82C230,-88.19 230,-74.31 230,-62.2"/>
<polygon fill="#b15928" stroke="#b15928" points="233.5,-62.15 230,-52.15 226.5,-62.15 233.5,-62.15"/>
</g>
</g>
</svg>
