<?xml version="1.0" encoding="UTF-8" standalone="no"?>
<!DOCTYPE svg PUBLIC "-//W3C//DTD SVG 1.1//EN"
 "http://www.w3.org/Graphics/SVG/1.1/DTD/svg11.dtd">
<!-- Generated by graphviz version 2.47.3 (20210619.1520)
 -->
<!-- Title: ./example/complex/ci.star Pages: 1 -->
<svg width="3058pt" height="254pt"
 viewBox="0.00 0.00 3058.00 254.00" xmlns="http://www.w3.org/2000/svg" xmlns:xlink="http://www.w3.org/1999/xlink">
<g id="graph0" class="graph" transform="scale(1 1) rotate(0) translate(4 250)">
<title>./example/complex/ci.star</title>
<polygon fill="white" stroke="transparent" points="-4,4 -4,-250 3054,-250 3054,4 -4,4"/>
<g id="clust1" class="cluster">
<title>cluster0</title>
<polygon fill="#ffff99" stroke="#b15928" points="53,-8 53,-155 973,-155 973,-8 53,-8"/>
<text text-anchor="middle" x="513" y="-139.8" font-family="Times,serif" font-size="14.00">:push_image1</text>
</g>
<g id="clust2" class="cluster">
<title>cluster1</title>
<polygon fill="#ffff99" stroke="#b15928" points="1065,-8 1065,-155 1985,-155 1985,-8 1065,-8"/>
<text text-anchor="middle" x="1525" y="-139.8" font-family="Times,serif" font-size="14.00">:push_image2</text>
</g>
<g id="clust3" class="cluster">
<title>cluster2</title>
<polygon fill="#ffff99" stroke="#b15928" points="2077,-8 2077,-155 2997,-155 2997,-8 2077,-8"/>
<text text-anchor="middle" x="2537" y="-139.8" font-family="Times,serif" font-size="14.00">:push_image3</text>
</g>
<g id="clust4" class="cluster">
<title>cluster3</title>
<polygon fill="#ffff99" stroke="#b15928" points="8,-163 8,-238 3042,-238 3042,-163 8,-163"/>
<text text-anchor="middle" x="1525" y="-222.8" font-family="Times,serif" font-size="14.00">:scan_job</text>
</g>
<!-- 0 -->
<g id="node1" class="node">
<title>0</title>
<polygon fill="#b2df8a" stroke="black" points="513,-124 272.36,-106 513,-88 753.64,-106 513,-124"/>
<text text-anchor="middle" x="513" y="-102.3" font-family="Times,serif" font-size="14.00">&lt;future_setter: /f/set/push_image1/future_0&gt;</text>
</g>
<!-- 1 -->
<g id="node2" class="node">
<title>1</title>
<ellipse fill="#a6cee3" stroke="black" cx="513" cy="-34" rx="451.92" ry="18"/>
<text text-anchor="middle" x="513" y="-30.3" font-family="Times,serif" font-size="14.00">&quot;run_container&quot;(args = [], env_vars = {&quot;WRITE_IMAGE_NAME_TO&quot;: &quot;/f/set/push_image1/future_0&quot;}, image = &quot;img1&quot;)</text>
</g>
<!-- 0&#45;&gt;1 -->
<g id="edge1" class="edge">
<title>0&#45;&gt;1</title>
<path fill="none" stroke="#33a02c" d="M513,-87.7C513,-79.98 513,-70.71 513,-62.11"/>
<polygon fill="#33a02c" stroke="#33a02c" points="516.5,-62.1 513,-52.1 509.5,-62.1 516.5,-62.1"/>
</g>
<!-- 2 -->
<g id="node3" class="node">
<title>2</title>
<polygon fill="#b2df8a" stroke="black" points="1525,-124 1284.36,-106 1525,-88 1765.64,-106 1525,-124"/>
<text text-anchor="middle" x="1525" y="-102.3" font-family="Times,serif" font-size="14.00">&lt;future_setter: /f/set/push_image2/future_0&gt;</text>
</g>
<!-- 3 -->
<g id="node4" class="node">
<title>3</title>
<ellipse fill="#a6cee3" stroke="black" cx="1525" cy="-34" rx="451.92" ry="18"/>
<text text-anchor="middle" x="1525" y="-30.3" font-family="Times,serif" font-size="14.00">&quot;run_container&quot;(args = [], env_vars = {&quot;WRITE_IMAGE_NAME_TO&quot;: &quot;/f/set/push_image2/future_0&quot;}, image = &quot;img2&quot;)</text>
</g>
<!-- 2&#45;&gt;3 -->
<g id="edge2" class="edge">
<title>2&#45;&gt;3</title>
<path fill="none" stroke="#33a02c" d="M1525,-87.7C1525,-79.98 1525,-70.71 1525,-62.11"/>
<polygon fill="#33a02c" stroke="#33a02c" points="1528.5,-62.1 1525,-52.1 1521.5,-62.1 1528.5,-62.1"/>
</g>
<!-- 4 -->
<g id="node5" class="node">
<title>4</title>
<polygon fill="#b2df8a" stroke="black" points="2537,-124 2296.36,-106 2537,-88 2777.64,-106 2537,-124"/>
<text text-anchor="middle" x="2537" y="-102.3" font-family="Times,serif" font-size="14.00">&lt;future_setter: /f/set/push_image3/future_0&gt;</text>
</g>
<!-- 5 -->
<g id="node6" class="node">
<title>5</title>
<ellipse fill="#a6cee3" stroke="black" cx="2537" cy="-34" rx="451.92" ry="18"/>
<text text-anchor="middle" x="2537" y="-30.3" font-family="Times,serif" font-size="14.00">&quot;run_container&quot;(args = [], env_vars = {&quot;WRITE_IMAGE_NAME_TO&quot;: &quot;/f/set/push_image3/future_0&quot;}, image = &quot;img3&quot;)</text>
</g>
<!-- 4&#45;&gt;5 -->
<g id="edge3" class="edge">
<title>4&#45;&gt;5</title>
<path fill="none" stroke="#33a02c" d="M2537,-87.7C2537,-79.98 2537,-70.71 2537,-62.11"/>
<polygon fill="#33a02c" stroke="#33a02c" points="2540.5,-62.1 2537,-52.1 2533.5,-62.1 2540.5,-62.1"/>
</g>
<!-- 6 -->
<g id="node7" class="node">
<title>6</title>
<ellipse fill="#a6cee3" stroke="black" cx="513" cy="-189" rx="497.41" ry="18"/>
<text text-anchor="middle" x="513" y="-185.3" font-family="Times,serif" font-size="14.00">&quot;run_container&quot;(args = [&quot;/f/get/push_image1/future_0&quot;], futures = [&lt;future_getter: /f/get/push_image1/future_0&gt;], image = &quot;scan:v1.0&quot;)</text>
</g>
<!-- 6&#45;&gt;0 -->
<g id="edge4" class="edge">
<title>6&#45;&gt;0</title>
<path fill="none" stroke="#33a02c" d="M513,-170.82C513,-160.19 513,-146.31 513,-134.2"/>
<polygon fill="#33a02c" stroke="#33a02c" points="516.5,-134.15 513,-124.15 509.5,-134.15 516.5,-134.15"/>
</g>
<!-- 7 -->
<g id="node8" class="node">
<title>7</title>
<ellipse fill="#a6cee3" stroke="black" cx="1525" cy="-189" rx="497.41" ry="18"/>
<text text-anchor="middle" x="1525" y="-185.3" font-family="Times,serif" font-size="14.00">&quot;run_container&quot;(args = [&quot;/f/get/push_image2/future_0&quot;], futures = [&lt;future_getter: /f/get/push_image2/future_0&gt;], image = &quot;scan:v1.0&quot;)</text>
</g>
<!-- 7&#45;&gt;2 -->
<g id="edge5" class="edge">
<title>7&#45;&gt;2</title>
<path fill="none" stroke="#33a02c" d="M1525,-170.82C1525,-160.19 1525,-146.31 1525,-134.2"/>
<polygon fill="#33a02c" stroke="#33a02c" points="1528.5,-134.15 1525,-124.15 1521.5,-134.15 1528.5,-134.15"/>
</g>
<!-- 8 -->
<g id="node9" class="node">
<title>8</title>
<ellipse fill="#a6cee3" stroke="black" cx="2537" cy="-189" rx="497.41" ry="18"/>
<text text-anchor="middle" x="2537" y="-185.3" font-family="Times,serif" font-size="14.00">&quot;run_container&quot;(args = [&quot;/f/get/push_image3/future_0&quot;], futures = [&lt;future_getter: /f/get/push_image3/future_0&gt;], image = &quot;scan:v1.0&quot;)</text>
</g>
<!-- 8&#45;&gt;4 -->
<g id="edge6" class="edge">
<title>8&#45;&gt;4</title>
<path fill="none" stroke="#33a02c" d="M2537,-170.82C2537,-160.19 2537,-146.31 2537,-134.2"/>
<polygon fill="#33a02c" stroke="#33a02c" points="2540.5,-134.15 2537,-124.15 2533.5,-134.15 2540.5,-134.15"/>
</g>
</g>
</svg>
