<?xml version="1.0" encoding="UTF-8" standalone="no"?>
<!DOCTYPE svg PUBLIC "-//W3C//DTD SVG 1.1//EN"
 "http://www.w3.org/Graphics/SVG/1.1/DTD/svg11.dtd">
<!-- Generated by graphviz version 2.47.3 (20210619.1520)
 -->
<!-- Title: ./example/hello/hello2.star Pages: 1 -->
<svg width="1052pt" height="254pt"
 viewBox="0.00 0.00 1052.00 254.00" xmlns="http://www.w3.org/2000/svg" xmlns:xlink="http://www.w3.org/1999/xlink">
<g id="graph0" class="graph" transform="scale(1 1) rotate(0) translate(4 250)">
<title>./example/hello/hello2.star</title>
<polygon fill="white" stroke="transparent" points="-4,4 -4,-250 1048,-250 1048,4 -4,4"/>
<g id="clust1" class="cluster">
<title>cluster0</title>
<polygon fill="#ffff99" stroke="#b15928" points="129,-8 129,-155 915,-155 915,-8 129,-8"/>
<text text-anchor="middle" x="522" y="-139.8" font-family="Times,serif" font-size="14.00">:greeting1</text>
</g>
<g id="clust2" class="cluster">
<title>cluster1</title>
<polygon fill="#ffff99" stroke="#b15928" points="8,-163 8,-238 1036,-238 1036,-163 8,-163"/>
<text text-anchor="middle" x="522" y="-222.8" font-family="Times,serif" font-size="14.00">:print1</text>
</g>
<!-- 0 -->
<g id="node1" class="node">
<title>0</title>
<polygon fill="#b2df8a" stroke="black" points="522,-124 301.3,-106 522,-88 742.7,-106 522,-124"/>
<text text-anchor="middle" x="522" y="-102.3" font-family="Times,serif" font-size="14.00">&lt;future_setter: /f/set/greeting1/future_0&gt;</text>
</g>
<!-- 1 -->
<g id="node2" class="node">
<title>1</title>
<ellipse fill="#a6cee3" stroke="black" cx="522" cy="-34" rx="384.53" ry="18"/>
<text text-anchor="middle" x="522" y="-30.3" font-family="Times,serif" font-size="14.00">&quot;run_container&quot;(args = [&quot;&#45;&#45;output&quot;, &quot;/f/set/greeting1/future_0&quot;, &quot;&#45;&#45;person&quot;, &quot;Sid&quot;], image = &quot;greeter:v1&quot;)</text>
</g>
<!-- 0&#45;&gt;1 -->
<g id="edge1" class="edge">
<title>0&#45;&gt;1</title>
<path fill="none" stroke="#33a02c" d="M522,-87.7C522,-79.98 522,-70.71 522,-62.11"/>
<polygon fill="#33a02c" stroke="#33a02c" points="525.5,-62.1 522,-52.1 518.5,-62.1 525.5,-62.1"/>
</g>
<!-- 2 -->
<g id="node3" class="node">
<title>2</title>
<ellipse fill="#a6cee3" stroke="black" cx="522" cy="-189" rx="506.11" ry="18"/>
<text text-anchor="middle" x="522" y="-185.3" font-family="Times,serif" font-size="14.00">&quot;run_container&quot;(args = [&quot;&#45;&#45;input&quot;, &quot;/f/get/greeting1/future_0&quot;], futures = [&lt;future_getter: /f/get/greeting1/future_0&gt;], image = &quot;printer:v1&quot;)</text>
</g>
<!-- 2&#45;&gt;0 -->
<g id="edge2" class="edge">
<title>2&#45;&gt;0</title>
<path fill="none" stroke="#33a02c" d="M522,-170.82C522,-160.19 522,-146.31 522,-134.2"/>
<polygon fill="#33a02c" stroke="#33a02c" points="525.5,-134.15 522,-124.15 518.5,-134.15 525.5,-134.15"/>
</g>
</g>
</svg>
